<?xml version="1.0" standalone="no"?>
<!DOCTYPE svg PUBLIC "-//W3C//DTD SVG 20010904//EN"
 "http://www.w3.org/TR/2001/REC-SVG-20010904/DTD/svg10.dtd">
<svg version="1.0" xmlns="http://www.w3.org/2000/svg"
 width="239.000000pt" height="239.000000pt" viewBox="0 0 239.000000 239.000000"
 preserveAspectRatio="xMidYMid meet">
<metadata>
Exquadrum Logo, made into SVG by Adam Angle
</metadata>
<g transform="translate(0.000000,239.000000) scale(0.100000,-0.100000)"
fill="#2b4592" stroke="none">
<path d="M1150 2319 c-22 -16 -40 -35 -40 -41 0 -7 16 -135 36 -285 21 -150
34 -277 30 -281 -4 -4 -175 -12 -379 -19 -205 -6 -413 -13 -462 -15 -67 -2
-98 -8 -119 -21 l-27 -18 428 -261 c235 -144 465 -284 511 -311 l82 -50 0
-489 c0 -276 4 -488 9 -486 5 1 142 97 304 212 l296 209 -19 26 c-11 14 -34
43 -52 64 l-33 39 -153 -111 c-84 -61 -155 -111 -157 -111 -3 0 -5 177 -5 393
0 292 -3 396 -12 405 -7 7 -37 12 -68 12 -60 0 -63 2 -633 322 l-97 55 422 7
c232 3 425 10 429 14 3 4 -20 117 -52 252 -32 135 -59 251 -59 258 0 10 11 7
38 -9 89 -54 451 -295 505 -336 55 -43 58 -47 53 -79 -5 -26 -3 -35 13 -44 17
-9 36 0 120 57 55 38 100 70 100 73 1 3 -217 138 -484 301 l-485 297 -40 -29z"/>
<path d="M690 1994 c-189 -134 -348 -248 -352 -252 -4 -4 57 -6 135 -4 108 3
148 7 167 19 14 9 115 80 226 159 l201 142 -13 87 c-7 48 -14 88 -16 90 -2 2
-158 -107 -348 -241z"/>
<path d="M1838 1456 c-175 -122 -323 -227 -328 -232 -7 -7 -10 -50 -8 -107 l3
-96 243 170 c134 93 246 169 248 169 2 0 4 -129 4 -287 l-1 -288 -69 -48 -69
-48 -60 31 c-66 33 -134 40 -166 16 -18 -13 -17 -15 21 -34 45 -24 103 -82
202 -204 54 -67 69 -92 65 -109 -7 -27 -4 -25 90 44 62 45 88 77 51 63 -16 -6
-84 52 -84 71 0 6 31 31 68 57 112 77 107 53 110 476 2 201 2 413 0 472 l-3
106 -317 -222z"/>
<path d="M219 1518 c113 -205 340 -642 336 -648 -3 -4 -86 -55 -185 -112 -98
-56 -179 -105 -179 -108 0 -3 35 -26 77 -51 l78 -46 144 79 c79 43 148 77 153
75 5 -1 68 -114 141 -250 72 -135 136 -251 141 -256 16 -15 209 -131 212 -127
2 2 -69 142 -158 312 -89 170 -172 330 -184 355 l-24 46 184 99 c102 54 185
102 185 106 0 8 -163 108 -177 108 -5 0 -66 -34 -137 -75 -71 -41 -131 -75
-135 -75 -3 0 -55 95 -115 210 -60 116 -117 223 -127 238 -13 23 -235 172
-255 172 -2 0 9 -24 25 -52z"/>
<path d="M190 1086 l0 -377 48 27 c26 15 53 32 60 37 9 7 12 68 12 242 l0 232
-56 104 c-31 57 -58 106 -60 108 -2 2 -4 -165 -4 -373z"/>
<path d="M453 558 c-29 -16 -53 -33 -53 -36 1 -6 397 -250 423 -261 4 -1 -12
38 -38 88 -45 90 -47 93 -128 144 -45 29 -98 62 -117 74 l-35 21 -52 -30z"/>
</g>
</svg>
